%YAML 1.1
%TAG !u! tag:unity3d.com,2011:
--- !u!114 &11400000
MonoBehaviour:
  m_ObjectHideFlags: 0
  m_CorrespondingSourceObject: {fileID: 0}
  m_PrefabInstance: {fileID: 0}
  m_PrefabAsset: {fileID: 0}
  m_GameObject: {fileID: 0}
  m_Enabled: 1
  m_EditorHideFlags: 0
  m_Script: {fileID: 11500000, guid: 398b220420870e246addc3c8a663044f, type: 3}
  m_Name: EnemyShooting
  m_EditorClassIdentifier: 
  Reward: 2
  FireRate: 2
  Speed: 0.4
  BulletPrefab: {fileID: 4324181020279989030, guid: 4a99e8f71b7c2244582ba8bca2b1bf68,
    type: 3}
